Introduction to Data Analysis and Reporting with R
…
The select function selects one or more columns:

select(gapminder, country)
select(gapminder, country, year, continent)
select(gapminder, -continent)

several helper functions (e.g. starts_with), see ?select for examples

5.9 mutate

Mutate creates new variables:

mutate(gapminder, gdp = pop * gdpPercap)

# A tibble: 1,704 x 7
       country continent  year lifeExp      pop gdpPercap         gdp
        <fctr>    <fctr> <int>   <dbl>    <int>     <dbl>       <dbl>
 1 Afghanistan      Asia  1952  28.801  8425333  779.4453  6567086330
 2 Afghanistan      Asia  1957  30.332  9240934  820.8530  7585448670
 3 Afghanistan      Asia  1962  31.997 10267083  853.1007  8758855797
 4 Afghanistan      Asia  1967  34.020 11537966  836.1971  9648014150
 5 Afghanistan      Asia  1972  36.088 13079460  739.9811  9678553274
 6 Afghanistan      Asia  1977  38.438 14880372  786.1134 11697659231
 7 Afghanistan      Asia  1982  39.854 12881816  978.0114 12598563401
 8 Afghanistan      Asia  1987  40.822 13867957  852.3959 11820990309
 9 Afghanistan      Asia  1992  41.674 16317921  649.3414 10595901589
10 Afghanistan      Asia  1997  41.763 22227415  635.3414 14121995875
# ... with 1,694 more rows
…
    year mean_life
   <int>     <dbl>
 1  1952  49.05762
 2  1957  51.50740
 3  1962  53.60925
 4  1967  55.67829
 5  1972  57.64739
 6  1977  59.57016
 7  1982  61.53320
 8  1987  63.21261
 9  1992  64.16034
10  1997  65.01468
11  2002  65.69492
12  2007  67.00742
# A tibble: 1,704 x 7
# Groups:   year [12]
       country continent  year lifeExp      pop gdpPercap year_mean_life
        <fctr>    <fctr> <int>   <dbl>    <int>     <dbl>          <dbl>
 1 Afghanistan      Asia  1952  28.801  8425333  779.4453       49.05762
 2 Afghanistan      Asia  1957  30.332  9240934  820.8530       51.50740
 3 Afghanistan      Asia  1962  31.997 10267083  853.1007       53.60925
 4 Afghanistan      Asia  1967  34.020 11537966  836.1971       55.67829
 5 Afghanistan      Asia  1972  36.088 13079460  739.9811       57.64739
 6 Afghanistan      Asia  1977  38.438 14880372  786.1134       59.57016
 7 Afghanistan      Asia  1982  39.854 12881816  978.0114       61.53320
 8 Afghanistan      Asia  1987  40.822 13867957  852.3959       63.21261
 9 Afghanistan      Asia  1992  41.674 16317921  649.3414       64.16034
10 Afghanistan      Asia  1997  41.763 22227415  635.3414       65.01468
# ... with 1,694 more rows

5.12 group_by, continued

Calculate change in life expectancy by country:

mutate(group_by(gapminder, country),
       life_change = lifeExp - lag(lifeExp))

# A tibble: 1,704 x 7
# Groups:   country [142]
       country continent  year lifeExp      pop gdpPercap life_change
        <fctr>    <fctr> <int>   <dbl>    <int>     <dbl>       <dbl>
 1 Afghanistan      Asia  1952  28.801  8425333  779.4453          NA
 2 Afghanistan      Asia  1957  30.332  9240934  820.8530       1.531
 3 Afghanistan      Asia  1962  31.997 10267083  853.1007       1.665
 4 Afghanistan      Asia  1967  34.020 11537966  836.1971       2.023
 5 Afghanistan      Asia  1972  36.088 13079460  739.9811       2.068
 6 Afghanistan      Asia  1977  38.438 14880372  786.1134       2.350
 7 Afghanistan      Asia  1982  39.854 12881816  978.0114       1.416
 8 Afghanistan      Asia  1987  40.822 13867957  852.3959       0.968
 9 Afghanistan      Asia  1992  41.674 16317921  649.3414       0.852
10 Afghanistan      Asia  1997  41.763 22227415  635.3414       0.089
# ... with 1,694 more rows

5.13 group_by, continued

You can group by multiple variables

summarize(group_by(gapminder, continent, year),
          mean_life = mean(lifeExp))

# A tibble: 60 x 3
# Groups:   continent [?]
   continent  year mean_life
      <fctr> <int>     <dbl>
 1    Africa  1952  39.13550
 2    Africa  1957  41.26635
 3    Africa  1962  43.31944
 4    Africa  1967  45.33454
 5    Africa  1972  47.45094
 6    Africa  1977  49.58042
 7    Africa  1982  51.59287
 8    Africa  1987  53.34479
 9    Africa  1992  53.62958
10    Africa  1997  53.59827
# ... with 50 more rows
…
summarize(meanlife = mean(lifeExp))

5.17 Quiz

Create a data.frame containing the continent, year, avg life expectancy, and change in avg life expectancy

5.18 Quiz answers

gapminder %>%
  group_by(continent, year) %>%
  summarize(avg_life = mean(lifeExp)) %>%
  mutate(change_life = avg_life - lag(avg_life))

# A tibble: 60 x 4
# Groups:   continent [5]
   continent  year avg_life change_life
      <fctr> <int>    <dbl>       <dbl>
 1    Africa  1952 39.13550          NA
 2    Africa  1957 41.26635  2.13084615
 3    Africa  1962 43.31944  2.05309615
 4    Africa  1967 45.33454  2.01509615
 5    Africa  1972 47.45094  2.11640385
 6    Africa  1977 49.58042  2.12948077
 7    Africa  1982 51.59287  2.01244231
 8    Africa  1987 53.34479  1.75192308
 9    Africa  1992 53.62958  0.28478846
10    Africa  1997 53.59827 -0.03130769
# ... with 50 more rows
…
